Chapter 5 Data Manipulation with dplyr | PA 5928 Data Management & Visualization with R (Spring 2021)
…
minneapolis %>%
  group_by(YEAR, RACE) %>% ## aggregate the data based on YEAR and RACE
  mutate(
    RACE = case_when( ## change RACE from numeric values to racial categories
      RACE == 1 ~ 'White',
      RACE == 2 ~ 'African American',
      RACE == 3 ~ 'American Indian'
    )
  ) %>% 
  summarise(MaxInc = max(INCTOT, na.rm = T)) ## maximum personal income for different racial groups in each year

## # A tibble: 30 x 3
## # Groups:   YEAR [10]
##     YEAR RACE             MaxInc
##    <int> <chr>             <dbl>
##  1  2010 African American 173200
##  2  2010 American Indian  362000
##  3  2010 White            637000
##  4  2011 African American 376000
##  5  2011 American Indian  200000
##  6  2011 White            594000
##  7  2012 African American 116000
##  8  2012 American Indian  396000
##  9  2012 White            461000
## 10  2013 African American 398000
## # ... with 20 more rows
…
